%YAML 1.1
%TAG !u! tag:unity3d.com,2011:
--- !u!1 &7496094492503707118
GameObject:
  m_ObjectHideFlags: 0
  m_CorrespondingSourceObject: {fileID: 0}
  m_PrefabInstance: {fileID: 0}
  m_PrefabAsset: {fileID: 0}
  serializedVersion: 6
  m_Component:
  - component: {fileID: 6865734879591160769}
  - component: {fileID: 9191630010112693673}
  - component: {fileID: 1971155661453555544}
  m_Layer: 0
  m_Name: Layer1
  m_TagString: Untagged
  m_Icon: {fileID: 0}
  m_NavMeshLayer: 0
  m_StaticEditorFlags: 0
  m_IsActive: 1
--- !u!4 &6865734879591160769
Transform:
  m_ObjectHideFlags: 0
  m_CorrespondingSourceObject: {fileID: 0}
  m_PrefabInstance: {fileID: 0}
  m_PrefabAsset: {fileID: 0}
  m_GameObject: {fileID: 7496094492503707118}
  m_LocalRotation: {x: -0, y: -0, z: -0, w: 1}
  m_LocalPosition: {x: 0, y: 0, z: 0}
  m_LocalScale: {x: 1, y: 1, z: 1}
  m_Children: []
  m_Father: {fileID: 5965446612524258084}
  m_RootOrder: 0
  m_LocalEulerAnglesHint: {x: 0, y: 0, z: 0}
--- !u!1839735485 &9191630010112693673
Tilemap:
  m_ObjectHideFlags: 0
  m_CorrespondingSourceObject: {fileID: 0}
  m_PrefabInstance: {fileID: 0}
  m_PrefabAsset: {fileID: 0}
  m_GameObject: {fileID: 7496094492503707118}
  m_Enabled: 1
  m_Tiles:
  - first: {x: -1, y: -11, z: 0}
    second:
      serializedVersion: 2
      m_TileIndex: 101
      m_TileSpriteIndex: 101
      m_TileMatrixIndex: 0
      m_TileColorIndex: 0
      m_TileObjectToInstantiateIndex: 65535
      m_AllTileFlags: 1073741825
  - first: {x: 0, y: -11, z: 0}
    second:
      serializedVersion: 2
      m_TileIndex: 102
      m_TileSpriteIndex: 102
      m_TileMatrixIndex: 0
      m_TileColorIndex: 0
      m_TileObjectToInstantiateIndex: 65535
      m_AllTileFlags: 1073741825
  - first: {x: 2, y: -11, z: 0}
    second:
      serializedVersion: 2
      m_TileIndex: 103
      m_TileSpriteIndex: 103
      m_TileMatrixIndex: 0
      m_TileColorIndex: 0
      m_TileObjectToInstantiateIndex: 65535
      m_AllTileFlags: 1073741825
  - first: {x: 3, y: -11, z: 0}
    second:
      serializedVersion: 2
      m_TileIndex: 104
      m_TileSpriteIndex: 104
      m_TileMatrixIndex: 0
      m_TileColorIndex: 0
      m_TileObjectToInstantiateIndex: 65535
      m_AllTileFlags: 1073741825
  - first: {x: 6, y: -11, z: 0}
    second:
      serializedVersion: 2
      m_TileIndex: 105
      m_TileSpriteIndex: 105
      m_TileMatrixIndex: 0
      m_TileColorIndex: 0
      m_TileObjectToInstantiateIndex: 65535
      m_AllTileFlags: 1073741825
  - first: {x: 7, y: -11, z: 0}
    second:
      serializedVersion: 2
      m_TileIndex: 106
      m_TileSpriteIndex: 106
      m_TileMatrixIndex: 0
      m_TileColorIndex: 0
      m_TileObjectToInstantiateIndex: 65535
      m_AllTileFlags: 1073741825
  - first: {x: 8, y: -11, z: 0}
    second:
      serializedVersion: 2
      m_TileIndex: 107
      m_TileSpriteIndex: 107
      m_TileMatrixIndex: 0
      m_TileColorIndex: 0
      m_TileObjectToInstantiateIndex: 65535
      m_AllTileFlags: 1073741825
  - first: {x: 9, y: -11, z: 0}
    second:
      serializedVersion: 2
      m_TileIndex: 108
      m_TileSpriteIndex: 108
      m_TileMatrixIndex: 0
      m_TileColorIndex: 0
      m_TileObjectToInstantiateIndex: 65535
      m_AllTileFlags: 1073741825
  - first: {x: -1, y: -10, z: 0}
    second:
      serializedVersion: 2
      m_TileIndex: 89
      m_TileSpriteIndex: 89
      m_TileMatrixIndex: 0
      m_TileColorIndex: 0
      m_TileObjectToInstantiateIndex: 65535
      m_AllTileFlags: 1073741825
  - first: {x: 0, y: -10, z: 0}
    second:
      serializedVersion: 2
      m_TileIndex: 90
      m_TileSpriteIndex: 90
      m_TileMatrixIndex: 0
      m_TileColorIndex: 0
      m_TileObjectToInstantiateIndex: 65535
      m_AllTileFlags: 1073741825
  - first: {x: 2, y: -10, z: 0}
    second:
      serializedVersion: 2
      m_TileIndex: 91
      m_TileSpriteIndex: 91
      m_TileMatrixIndex: 0
      m_TileColorIndex: 0
      m_TileObjectToInstantiateIndex: 65535
      m_AllTileFlags: 1073741825
  - first: {x: 3, y: -10, z: 0}
    second:
      serializedVersion: 2
      m_TileIndex: 92
      m_TileSpriteIndex: 92
      m_TileMatrixIndex: 0
      m_TileColorIndex: 0
      m_TileObjectToInstantiateIndex: 65535
      m_AllTileFlags: 1073741825
  - first: {x: 6, y: -10, z: 0}
    second:
      serializedVersion: 2
      m_TileIndex: 93
      m_TileSpriteIndex: 93
      m_TileMatrixIndex: 0
      m_TileColorIndex: 0
      m_TileObjectToInstantiateIndex: 65535
      m_AllTileFlags: 1073741825
  - first: {x: 7, y: -10, z: 0}
    second:
      serializedVersion: 2
      m_TileIndex: 94
      m_TileSpriteIndex: 94
      m_TileMatrixIndex: 0
      m_TileColorIndex: 0
      m_TileObjectToInstantiateIndex: 65535
      m_AllTileFlags: 1073741825
  - first: {x: 8, y: -10, z: 0}
    second:
      serializedVersion: 2
      m_TileIndex: 95
      m_TileSpriteIndex: 95
      m_TileMatrixIndex: 0
      m_TileColorIndex: 0
      m_TileObjectToInstantiateIndex: 65535
      m_AllTileFlags: 1073741825
  - first: {x: 9, y: -10, z: 0}
    second:
      serializedVersion: 2
      m_TileIndex: 96
      m_TileSpriteIndex: 96
      m_TileMatrixIndex: 0
      m_TileColorIndex: 0
      m_TileObjectToInstantiateIndex: 65535
      m_AllTileFlags: 1073741825
  - first: {x: 11, y: -10, z: 0}
    second:
      serializedVersion: 2
      m_TileIndex: 97
      m_TileSpriteIndex: 97
      m_TileMatrixIndex: 0
      m_TileColorIndex: 0
      m_TileObjectToInstantiateIndex: 65535
      m_AllTileFlags: 1073741825
  - first: {x: 12, y: -10, z: 0}
    second:
      serializedVersion: 2
      m_TileIndex: 98
      m_TileSpriteIndex: 98
      m_TileMatrixIndex: 0
      m_TileColorIndex: 0
      m_TileObjectToInstantiateIndex: 65535
      m_AllTileFlags: 1073741825
  - first: {x: 13, y: -10, z: 0}
    second:
      serializedVersion: 2
      m_TileIndex: 99
      m_TileSpriteIndex: 99
      m_TileMatrixIndex: 0
      m_TileColorIndex: 0
      m_TileObjectToInstantiateIndex: 65535
      m_AllTileFlags: 1073741825
  - first: {x: 14, y: -10, z: 0}
    second:
      serializedVersion: 2
      m_TileIndex: 100
      m_TileSpriteIndex: 100
      m_TileMatrixIndex: 0
      m_TileColorIndex: 0
      m_TileObjectToInstantiateIndex: 65535
      m_AllTileFlags: 1073741825
  - first: {x: 6, y: -9, z: 0}
    second:
      serializedVersion: 2
      m_TileIndex: 79
      m_TileSpriteIndex: 79
      m_TileMatrixIndex: 0
      m_TileColorIndex: 0
      m_TileObjectToInstantiateIndex: 65535
      m_AllTileFlags: 1073741825
  - first: {x: 7, y: -9, z: 0}
    second:
      serializedVersion: 2
      m_TileIndex: 80
      m_TileSpriteIndex: 80
      m_TileMatrixIndex: 0
      m_TileColorIndex: 0
      m_TileObjectToInstantiateIndex: 65535
      m_AllTileFlags: 1073741825
  - first: {x: 8, y: -9, z: 0}
    second:
      serializedVersion: 2
      m_TileIndex: 81
      m_TileSpriteIndex: 81
      m_TileMatrixIndex: 0
      m_TileColorIndex: 0
      m_TileObjectToInstantiateIndex: 65535
      m_AllTileFlags: 1073741825
  - first: {x: 9, y: -9, z: 0}
    second:
      serializedVersion: 2
      m_TileIndex: 82
      m_TileSpriteIndex: 82
      m_TileMatrixIndex: 0
      m_TileColorIndex: 0
      m_TileObjectToInstantiateIndex: 65535
      m_AllTileFlags: 1073741825
  - first: {x: 11, y: -9, z: 0}
    second:
      serializedVersion: 2
      m_TileIndex: 83
      m_TileSpriteIndex: 83
      m_TileMatrixIndex: 0
      m_TileColorIndex: 0
      m_TileObjectToInstantiateIndex: 65535
      m_AllTileFlags: 1073741825
  - first: {x: 12, y: -9, z: 0}
    second:
      serializedVersion: 2
      m_TileIndex: 84
      m_TileSpriteIndex: 84
      m_TileMatrixIndex: 0
      m_TileColorIndex: 0
      m_TileObjectToInstantiateIndex: 65535
      m_AllTileFlags: 1073741825
  - first: {x: 13, y: -9, z: 0}
    second:
      serializedVersion: 2
      m_TileIndex: 85
      m_TileSpriteIndex: 85
      m_TileMatrixIndex: 0
      m_TileColorIndex: 0
      m_TileObjectToInstantiateIndex: 65535
      m_AllTileFlags: 1073741825
  - first: {x: 14, y: -9, z: 0}
    second:
      serializedVersion: 2
      m_TileIndex: 86
      m_TileSpriteIndex: 86
      m_TileMatrixIndex: 0
      m_TileColorIndex: 0
      m_TileObjectToInstantiateIndex: 65535
      m_AllTileFlags: 1073741825
  - first: {x: 16, y: -9, z: 0}
    second:
      serializedVersion: 2
      m_TileIndex: 87
      m_TileSpriteIndex: 87
      m_TileMatrixIndex: 0
      m_TileColorIndex: 0
      m_TileObjectToInstantiateIndex: 65535
      m_AllTileFlags: 1073741825
  - first: {x: 17, y: -9, z: 0}
    second:
      serializedVersion: 2
      m_TileIndex: 88
      m_TileSpriteIndex: 88
      m_TileMatrixIndex: 0
      m_TileColorIndex: 0
      m_TileObjectToInstantiateIndex: 65535
      m_AllTileFlags: 1073741825
  - first: {x: 11, y: -8, z: 0}
    second:
      serializedVersion: 2
      m_TileIndex: 72
      m_TileSpriteIndex: 72
      m_TileMatrixIndex: 0
      m_TileColorIndex: 0
      m_TileObjectToInstantiateIndex: 65535
      m_AllTileFlags: 1073741825
  - first: {x: 12, y: -8, z: 0}
    second:
      serializedVersion: 2
      m_TileIndex: 73
      m_TileSpriteIndex: 73
      m_TileMatrixIndex: 0
      m_TileColorIndex: 0
      m_TileObjectToInstantiateIndex: 65535
      m_AllTileFlags: 1073741825
  - first: {x: 13, y: -8, z: 0}
    second:
      serializedVersion: 2
      m_TileIndex: 74
      m_TileSpriteIndex: 74
      m_TileMatrixIndex: 0
      m_TileColorIndex: 0
      m_TileObjectToInstantiateIndex: 65535
      m_AllTileFlags: 1073741825
  - first: {x: 14, y: -8, z: 0}
    second:
      serializedVersion: 2
      m_TileIndex: 75
      m_TileSpriteIndex: 75
      m_TileMatrixIndex: 0
      m_TileColorIndex: 0
      m_TileObjectToInstantiateIndex: 65535
      m_AllTileFlags: 1073741825
  - first: {x: 16, y: -8, z: 0}
    second:
      serializedVersion: 2
      m_TileIndex: 76
      m_TileSpriteIndex: 76
      m_TileMatrixIndex: 0
      m_TileColorIndex: 0
      m_TileObjectToInstantiateIndex: 65535
      m_AllTileFlags: 1073741825
  - first: {x: 17, y: -8, z: 0}
    second:
      serializedVersion: 2
      m_TileIndex: 77
      m_TileSpriteIndex: 77
      m_TileMatrixIndex: 0
      m_TileColorIndex: 0
      m_TileObjectToInstantiateIndex: 65535
      m_AllTileFlags: 1073741825
  - first: {x: 18, y: -8, z: 0}
    second:
      serializedVersion: 2
      m_TileIndex: 78
      m_TileSpriteIndex: 78
      m_TileMatrixIndex: 0
      m_TileColorIndex: 0
      m_TileObjectToInstantiateIndex: 65535
      m_AllTileFlags: 1073741825
  - first: {x: -1, y: -7, z: 0}
    second:
      serializedVersion: 2
      m_TileIndex: 57
      m_TileSpriteIndex: 57
      m_TileMatrixIndex: 0
      m_TileColorIndex: 0
      m_TileObjectToInstantiateIndex: 65535
      m_AllTileFlags: 1073741825
  - first: {x: 0, y: -7, z: 0}
    second:
      serializedVersion: 2
      m_TileIndex: 58
      m_TileSpriteIndex: 58
      m_TileMatrixIndex: 0
      m_TileColorIndex: 0
      m_TileObjectToInstantiateIndex: 65535
      m_AllTileFlags: 1073741825
  - first: {x: 2, y: -7, z: 0}
    second:
      serializedVersion: 2
      m_TileIndex: 59
      m_TileSpriteIndex: 59
      m_TileMatrixIndex: 0
      m_TileColorIndex: 0
      m_TileObjectToInstantiateIndex: 65535
      m_AllTileFlags: 1073741825
  - first: {x: 3, y: -7, z: 0}
    second:
      serializedVersion: 2
      m_TileIndex: 60
      m_TileSpriteIndex: 60
      m_TileMatrixIndex: 0
      m_TileColorIndex: 0
      m_TileObjectToInstantiateIndex: 65535
      m_AllTileFlags: 1073741825
  - first: {x: 6, y: -7, z: 0}
    second:
      serializedVersion: 2
      m_TileIndex: 61
      m_TileSpriteIndex: 61
      m_TileMatrixIndex: 0
      m_TileColorIndex: 0
      m_TileObjectToInstantiateIndex: 65535
      m_AllTileFlags: 1073741825
  - first: {x: 7, y: -7, z: 0}
    second:
      serializedVersion: 2
      m_TileIndex: 62
      m_TileSpriteIndex: 62
      m_TileMatrixIndex: 0
      m_TileColorIndex: 0
      m_TileObjectToInstantiateIndex: 65535
      m_AllTileFlags: 1073741825
  - first: {x: 8, y: -7, z: 0}
    second:
      serializedVersion: 2
      m_TileIndex: 63
      m_TileSpriteIndex: 63
      m_TileMatrixIndex: 0
      m_TileColorIndex: 0
      m_TileObjectToInstantiateIndex: 65535
      m_AllTileFlags: 1073741825
  - first: {x: 9, y: -7, z: 0}
    second:
      serializedVersion: 2
      m_TileIndex: 64
      m_TileSpriteIndex: 64
      m_TileMatrixIndex: 0
      m_TileColorIndex: 0
      m_TileObjectToInstantiateIndex: 65535
      m_AllTileFlags: 1073741825
  - first: {x: 11, y: -7, z: 0}
    second:
      serializedVersion: 2
      m_TileIndex: 65
      m_TileSpriteIndex: 65
      m_TileMatrixIndex: 0
      m_TileColorIndex: 0
      m_TileObjectToInstantiateIndex: 65535
      m_AllTileFlags: 1073741825
  - first: {x: 12, y: -7, z: 0}
    second:
      serializedVersion: 2
      m_TileIndex: 66
      m_TileSpriteIndex: 66
      m_TileMatrixIndex: 0
      m_TileColorIndex: 0
      m_TileObjectToInstantiateIndex: 65535
      m_AllTileFlags: 1073741825
  - first: {x: 13, y: -7, z: 0}
    second:
      serializedVersion: 2
      m_TileIndex: 67
      m_TileSpriteIndex: 67
      m_TileMatrixIndex: 0
      m_TileColorIndex: 0
      m_TileObjectToInstantiateIndex: 65535
      m_AllTileFlags: 1073741825
  - first: {x: 14, y: -7, z: 0}
    second:
      serializedVersion: 2
      m_TileIndex: 68
      m_TileSpriteIndex: 68
      m_TileMatrixIndex: 0
      m_TileColorIndex: 0
      m_TileObjectToInstantiateIndex: 65535
      m_AllTileFlags: 1073741825
  - first: {x: 16, y: -7, z: 0}
    second:
      serializedVersion: 2
      m_TileIndex: 69
      m_TileSpriteIndex: 69
      m_TileMatrixIndex: 0
      m_TileColorIndex: 0
      m_TileObjectToInstantiateIndex: 65535
      m_AllTileFlags: 1073741825
  - first: {x: 17, y: -7, z: 0}
    second:
      serializedVersion: 2
      m_TileIndex: 70
      m_TileSpriteIndex: 70
      m_TileMatrixIndex: 0
      m_TileColorIndex: 0
      m_TileObjectToInstantiateIndex: 65535
      m_AllTileFlags: 1073741825
  - first: {x: 18, y: -7, z: 0}
    second:
      serializedVersion: 2
      m_TileIndex: 71
      m_TileSpriteIndex: 71
      m_TileMatrixIndex: 0
      m_TileColorIndex: 0
      m_TileObjectToInstantiateIndex: 65535
      m_AllTileFlags: 1073741825
  - first: {x: -1, y: -6, z: 0}
    second:
      serializedVersion: 2
      m_TileIndex: 42
      m_TileSpriteIndex: 42
      m_TileMatrixIndex: 0
      m_TileColorIndex: 0
      m_TileObjectToInstantiateIndex: 65535
      m_AllTileFlags: 1073741825
  - first: {x: 0, y: -6, z: 0}
    second:
      serializedVersion: 2
      m_TileIndex: 43
      m_TileSpriteIndex: 43
      m_TileMatrixIndex: 0
      m_TileColorIndex: 0
      m_TileObjectToInstantiateIndex: 65535
      m_AllTileFlags: 1073741825
  - first: {x: 2, y: -6, z: 0}
    second:
      serializedVersion: 2
      m_TileIndex: 44
      m_TileSpriteIndex: 44
      m_TileMatrixIndex: 0
      m_TileColorIndex: 0
      m_TileObjectToInstantiateIndex: 65535
      m_AllTileFlags: 1073741825
  - first: {x: 3, y: -6, z: 0}
    second:
      serializedVersion: 2
      m_TileIndex: 45
      m_TileSpriteIndex: 45
      m_TileMatrixIndex: 0
      m_TileColorIndex: 0
      m_TileObjectToInstantiateIndex: 65535
      m_AllTileFlags: 1073741825
  - first: {x: 6, y: -6, z: 0}
    second:
      serializedVersion: 2
      m_TileIndex: 46
      m_TileSpriteIndex: 46
      m_TileMatrixIndex: 0
      m_TileColorIndex: 0
      m_TileObjectToInstantiateIndex: 65535
      m_AllTileFlags: 1073741825
  - first: {x: 7, y: -6, z: 0}
    second:
      serializedVersion: 2
      m_TileIndex: 47
      m_TileSpriteIndex: 47
      m_TileMatrixIndex: 0
      m_TileColorIndex: 0
      m_TileObjectToInstantiateIndex: 65535
      m_AllTileFlags: 1073741825
  - first: {x: 8, y: -6, z: 0}
    second:
      serializedVersion: 2
      m_TileIndex: 48
      m_TileSpriteIndex: 48
      m_TileMatrixIndex: 0
      m_TileColorIndex: 0
      m_TileObjectToInstantiateIndex: 65535
      m_AllTileFlags: 1073741825
  - first: {x: 9, y: -6, z: 0}
    second:
      serializedVersion: 2
      m_TileIndex: 49
      m_TileSpriteIndex: 49
      m_TileMatrixIndex: 0
      m_TileColorIndex: 0
      m_TileObjectToInstantiateIndex: 65535
      m_AllTileFlags: 1073741825
  - first: {x: 11, y: -6, z: 0}
    second:
      serializedVersion: 2
      m_TileIndex: 50
      m_TileSpriteIndex: 50
      m_TileMatrixIndex: 0
      m_TileColorIndex: 0
      m_TileObjectToInstantiateIndex: 65535
      m_AllTileFlags: 1073741825
  - first: {x: 12, y: -6, z: 0}
    second:
      serializedVersion: 2
      m_TileIndex: 51
      m_TileSpriteIndex: 51
      m_TileMatrixIndex: 0
      m_TileColorIndex: 0
      m_TileObjectToInstantiateIndex: 65535
      m_AllTileFlags: 1073741825
  - first: {x: 13, y: -6, z: 0}
    second:
      serializedVersion: 2
      m_TileIndex: 52
      m_TileSpriteIndex: 52
      m_TileMatrixIndex: 0
      m_TileColorIndex: 0
      m_TileObjectToInstantiateIndex: 65535
      m_AllTileFlags: 1073741825
  - first: {x: 14, y: -6, z: 0}
    second:
      serializedVersion: 2
      m_TileIndex: 53
      m_TileSpriteIndex: 53
      m_TileMatrixIndex: 0
      m_TileColorIndex: 0
      m_TileObjectToInstantiateIndex: 65535
      m_AllTileFlags: 1073741825
  - first: {x: 16, y: -6, z: 0}
    second:
      serializedVersion: 2
      m_TileIndex: 54
      m_TileSpriteIndex: 54
      m_TileMatrixIndex: 0
      m_TileColorIndex: 0
      m_TileObjectToInstantiateIndex: 65535
      m_AllTileFlags: 1073741825
  - first: {x: 17, y: -6, z: 0}
    second:
      serializedVersion: 2
      m_TileIndex: 55
      m_TileSpriteIndex: 55
      m_TileMatrixIndex: 0
      m_TileColorIndex: 0
      m_TileObjectToInstantiateIndex: 65535
      m_AllTileFlags: 1073741825
  - first: {x: 18, y: -6, z: 0}
    second:
      serializedVersion: 2
      m_TileIndex: 56
      m_TileSpriteIndex: 56
      m_TileMatrixIndex: 0
      m_TileColorIndex: 0
      m_TileObjectToInstantiateIndex: 65535
      m_AllTileFlags: 1073741825
  - first: {x: 5, y: -5, z: 0}
    second:
      serializedVersion: 2
      m_TileIndex: 36
      m_TileSpriteIndex: 36
      m_TileMatrixIndex: 0
      m_TileColorIndex: 0
      m_TileObjectToInstantiateIndex: 65535
      m_AllTileFlags: 1073741825
  - first: {x: 6, y: -5, z: 0}
    second:
      serializedVersion: 2
      m_TileIndex: 37
      m_TileSpriteIndex: 37
      m_TileMatrixIndex: 0
      m_TileColorIndex: 0
      m_TileObjectToInstantiateIndex: 65535
      m_AllTileFlags: 1073741825
  - first: {x: 7, y: -5, z: 0}
    second:
      serializedVersion: 2
      m_TileIndex: 38
      m_TileSpriteIndex: 38
      m_TileMatrixIndex: 0
      m_TileColorIndex: 0
      m_TileObjectToInstantiateIndex: 65535
      m_AllTileFlags: 1073741825
  - first: {x: 8, y: -5, z: 0}
    second:
      serializedVersion: 2
      m_TileIndex: 39
      m_TileSpriteIndex: 39
      m_TileMatrixIndex: 0
      m_TileColorIndex: 0
      m_TileObjectToInstantiateIndex: 65535
      m_AllTileFlags: 1073741825
  - first: {x: 9, y: -5, z: 0}
    second:
      serializedVersion: 2
      m_TileIndex: 40
      m_TileSpriteIndex: 40
      m_TileMatrixIndex: 0
      m_TileColorIndex: 0
      m_TileObjectToInstantiateIndex: 65535
      m_AllTileFlags: 1073741825
  - first: {x: 10, y: -5, z: 0}
    second:
      serializedVersion: 2
      m_TileIndex: 41
      m_TileSpriteIndex: 41
      m_TileMatrixIndex: 0
      m_TileColorIndex: 0
      m_TileObjectToInstantiateIndex: 65535
      m_AllTileFlags: 1073741825
  - first: {x: 0, y: -4, z: 0}
    second:
      serializedVersion: 2
      m_TileIndex: 25
      m_TileSpriteIndex: 25
      m_TileMatrixIndex: 0
      m_TileColorIndex: 0
      m_TileObjectToInstantiateIndex: 65535
      m_AllTileFlags: 1073741825
  - first: {x: 2, y: -4, z: 0}
    second:
      serializedVersion: 2
      m_TileIndex: 26
      m_TileSpriteIndex: 26
      m_TileMatrixIndex: 0
      m_TileColorIndex: 0
      m_TileObjectToInstantiateIndex: 65535
      m_AllTileFlags: 1073741825
  - first: {x: 5, y: -4, z: 0}
    second:
      serializedVersion: 2
      m_TileIndex: 27
      m_TileSpriteIndex: 27
      m_TileMatrixIndex: 0
      m_TileColorIndex: 0
      m_TileObjectToInstantiateIndex: 65535
      m_AllTileFlags: 1073741825
  - first: {x: 6, y: -4, z: 0}
    second:
      serializedVersion: 2
      m_TileIndex: 28
      m_TileSpriteIndex: 28
      m_TileMatrixIndex: 0
      m_TileColorIndex: 0
      m_TileObjectToInstantiateIndex: 65535
      m_AllTileFlags: 1073741825
  - first: {x: 7, y: -4, z: 0}
    second:
      serializedVersion: 2
      m_TileIndex: 29
      m_TileSpriteIndex: 29
      m_TileMatrixIndex: 0
      m_TileColorIndex: 0
      m_TileObjectToInstantiateIndex: 65535
      m_AllTileFlags: 1073741825
  - first: {x: 8, y: -4, z: 0}
    second:
      serializedVersion: 2
      m_TileIndex: 30
      m_TileSpriteIndex: 30
      m_TileMatrixIndex: 0
      m_TileColorIndex: 0
      m_TileObjectToInstantiateIndex: 65535
      m_AllTileFlags: 1073741825
  - first: {x: 9, y: -4, z: 0}
    second:
      serializedVersion: 2
      m_TileIndex: 31
      m_TileSpriteIndex: 31
      m_TileMatrixIndex: 0
      m_TileColorIndex: 0
      m_TileObjectToInstantiateIndex: 65535
      m_AllTileFlags: 1073741825
  - first: {x: 10, y: -4, z: 0}
    second:
      serializedVersion: 2
      m_TileIndex: 32
      m_TileSpriteIndex: 32
      m_TileMatrixIndex: 0
      m_TileColorIndex: 0
      m_TileObjectToInstantiateIndex: 65535
      m_AllTileFlags: 1073741825
  - first: {x: 11, y: -4, z: 0}
    second:
      serializedVersion: 2
      m_TileIndex: 33
      m_TileSpriteIndex: 33
      m_TileMatrixIndex: 0
      m_TileColorIndex: 0
      m_TileObjectToInstantiateIndex: 65535
      m_AllTileFlags: 1073741825
  - first: {x: 15, y: -4, z: 0}
    second:
      serializedVersion: 2
      m_TileIndex: 34
      m_TileSpriteIndex: 34
      m_TileMatrixIndex: 0
      m_TileColorIndex: 0
      m_TileObjectToInstantiateIndex: 65535
      m_AllTileFlags: 1073741825
  - first: {x: 17, y: -4, z: 0}
    second:
      serializedVersion: 2
      m_TileIndex: 35
      m_TileSpriteIndex: 35
      m_TileMatrixIndex: 0
      m_TileColorIndex: 0
      m_TileObjectToInstantiateIndex: 65535
      m_AllTileFlags: 1073741825
  - first: {x: 0, y: -3, z: 0}
    second:
      serializedVersion: 2
      m_TileIndex: 15
      m_TileSpriteIndex: 15
      m_TileMatrixIndex: 0
      m_TileColorIndex: 0
      m_TileObjectToInstantiateIndex: 65535
      m_AllTileFlags: 1073741825
  - first: {x: 2, y: -3, z: 0}
    second:
      serializedVersion: 2
      m_TileIndex: 16
      m_TileSpriteIndex: 16
      m_TileMatrixIndex: 0
      m_TileColorIndex: 0
      m_TileObjectToInstantiateIndex: 65535
      m_AllTileFlags: 1073741825
  - first: {x: 6, y: -3, z: 0}
    second:
      serializedVersion: 2
      m_TileIndex: 17
      m_TileSpriteIndex: 17
      m_TileMatrixIndex: 0
      m_TileColorIndex: 0
      m_TileObjectToInstantiateIndex: 65535
      m_AllTileFlags: 1073741825
  - first: {x: 7, y: -3, z: 0}
    second:
      serializedVersion: 2
      m_TileIndex: 18
      m_TileSpriteIndex: 18
      m_TileMatrixIndex: 0
      m_TileColorIndex: 0
      m_TileObjectToInstantiateIndex: 65535
      m_AllTileFlags: 1073741825
  - first: {x: 8, y: -3, z: 0}
    second:
      serializedVersion: 2
      m_TileIndex: 19
      m_TileSpriteIndex: 19
      m_TileMatrixIndex: 0
      m_TileColorIndex: 0
      m_TileObjectToInstantiateIndex: 65535
      m_AllTileFlags: 1073741825
  - first: {x: 9, y: -3, z: 0}
    second:
      serializedVersion: 2
      m_TileIndex: 20
      m_TileSpriteIndex: 20
      m_TileMatrixIndex: 0
      m_TileColorIndex: 0
      m_TileObjectToInstantiateIndex: 65535
      m_AllTileFlags: 1073741825
  - first: {x: 11, y: -3, z: 0}
    second:
      serializedVersion: 2
      m_TileIndex: 21
      m_TileSpriteIndex: 21
      m_TileMatrixIndex: 0
      m_TileColorIndex: 0
      m_TileObjectToInstantiateIndex: 65535
      m_AllTileFlags: 1073741825
  - first: {x: 13, y: -3, z: 0}
    second:
      serializedVersion: 2
      m_TileIndex: 22
      m_TileSpriteIndex: 22
      m_TileMatrixIndex: 0
      m_TileColorIndex: 0
      m_TileObjectToInstantiateIndex: 65535
      m_AllTileFlags: 1073741825
  - first: {x: 15, y: -3, z: 0}
    second:
      serializedVersion: 2
      m_TileIndex: 23
      m_TileSpriteIndex: 23
      m_TileMatrixIndex: 0
      m_TileColorIndex: 0
      m_TileObjectToInstantiateIndex: 65535
      m_AllTileFlags: 1073741825
  - first: {x: 17, y: -3, z: 0}
    second:
      serializedVersion: 2
      m_TileIndex: 24
      m_TileSpriteIndex: 24
      m_TileMatrixIndex: 0
      m_TileColorIndex: 0
      m_TileObjectToInstantiateIndex: 65535
      m_AllTileFlags: 1073741825
  - first: {x: 7, y: -2, z: 0}
    second:
      serializedVersion: 2
      m_TileIndex: 9
      m_TileSpriteIndex: 9
      m_TileMatrixIndex: 0
      m_TileColorIndex: 0
      m_TileObjectToInstantiateIndex: 65535
      m_AllTileFlags: 1073741825
  - first: {x: 8, y: -2, z: 0}
    second:
      serializedVersion: 2
      m_TileIndex: 10
      m_TileSpriteIndex: 10
      m_TileMatrixIndex: 0
      m_TileColorIndex: 0
      m_TileObjectToInstantiateIndex: 65535
      m_AllTileFlags: 1073741825
  - first: {x: 11, y: -2, z: 0}
    second:
      serializedVersion: 2
      m_TileIndex: 11
      m_TileSpriteIndex: 11
      m_TileMatrixIndex: 0
      m_TileColorIndex: 0
      m_TileObjectToInstantiateIndex: 65535
      m_AllTileFlags: 1073741825
  - first: {x: 13, y: -2, z: 0}
    second:
      serializedVersion: 2
      m_TileIndex: 12
      m_TileSpriteIndex: 12
      m_TileMatrixIndex: 0
      m_TileColorIndex: 0
      m_TileObjectToInstantiateIndex: 65535
      m_AllTileFlags: 1073741825
  - first: {x: 15, y: -2, z: 0}
    second:
      serializedVersion: 2
      m_TileIndex: 13
      m_TileSpriteIndex: 13
      m_TileMatrixIndex: 0
      m_TileColorIndex: 0
      m_TileObjectToInstantiateIndex: 65535
      m_AllTileFlags: 1073741825
  - first: {x: 17, y: -2, z: 0}
    second:
      serializedVersion: 2
      m_TileIndex: 14
      m_TileSpriteIndex: 14
      m_TileMatrixIndex: 0
      m_TileColorIndex: 0
      m_TileObjectToInstantiateIndex: 65535
      m_AllTileFlags: 1073741825
  - first: {x: 2, y: -1, z: 0}
    second:
      serializedVersion: 2
      m_TileIndex: 8
      m_TileSpriteIndex: 8
      m_TileMatrixIndex: 0
      m_TileColorIndex: 0
      m_TileObjectToInstantiateIndex: 65535
      m_AllTileFlags: 1073741825
  - first: {x: 0, y: 0, z: 0}
    second:
      serializedVersion: 2
      m_TileIndex: 0
      m_TileSpriteIndex: 0
      m_TileMatrixIndex: 0
      m_TileColorIndex: 0
      m_TileObjectToInstantiateIndex: 65535
      m_AllTileFlags: 1073741825
  - first: {x: 2, y: 0, z: 0}
    second:
      serializedVersion: 2
      m_TileIndex: 1
      m_TileSpriteIndex: 1
      m_TileMatrixIndex: 0
      m_TileColorIndex: 0
      m_TileObjectToInstantiateIndex: 65535
      m_AllTileFlags: 1073741825
  - first: {x: 3, y: 0, z: 0}
    second:
      serializedVersion: 2
      m_TileIndex: 2
      m_TileSpriteIndex: 2
      m_TileMatrixIndex: 0
      m_TileColorIndex: 0
      m_TileObjectToInstantiateIndex: 65535
      m_AllTileFlags: 1073741825
  - first: {x: 4, y: 0, z: 0}
    second:
      serializedVersion: 2
      m_TileIndex: 3
      m_TileSpriteIndex: 3
      m_TileMatrixIndex: 0
      m_TileColorIndex: 0
      m_TileObjectToInstantiateIndex: 65535
      m_AllTileFlags: 1073741825
  - first: {x: 5, y: 0, z: 0}
    second:
      serializedVersion: 2
      m_TileIndex: 4
      m_TileSpriteIndex: 4
      m_TileMatrixIndex: 0
      m_TileColorIndex: 0
      m_TileObjectToInstantiateIndex: 65535
      m_AllTileFlags: 1073741825
  - first: {x: 7, y: 0, z: 0}
    second:
      serializedVersion: 2
      m_TileIndex: 5
      m_TileSpriteIndex: 5
      m_TileMatrixIndex: 0
      m_TileColorIndex: 0
      m_TileObjectToInstantiateIndex: 65535
      m_AllTileFlags: 1073741825
  - first: {x: 9, y: 0, z: 0}
    second:
      serializedVersion: 2
      m_TileIndex: 6
      m_TileSpriteIndex: 6
      m_TileMatrixIndex: 0
      m_TileColorIndex: 0
      m_TileObjectToInstantiateIndex: 65535
      m_AllTileFlags: 1073741825
  - first: {x: 11, y: 0, z: 0}
    second:
      serializedVersion: 2
      m_TileIndex: 7
      m_TileSpriteIndex: 7
      m_TileMatrixIndex: 0
      m_TileColorIndex: 0
      m_TileObjectToInstantiateIndex: 65535
      m_AllTileFlags: 1073741825
  m_AnimatedTiles: {}
  m_TileAssetArray:
  - m_RefCount: 1
    m_Data: {fileID: 11400000, guid: 3d5941ebcf0c24cc39f889b54eba8d16, type: 2}
  - m_RefCount: 1
    m_Data: {fileID: 11400000, guid: d7f2a66f3c5b74e59bbeb822875fd55d, type: 2}
  - m_RefCount: 1
    m_Data: {fileID: 11400000, guid: 8f4b9aa1683c841e4ae3889add936700, type: 2}
  - m_RefCount: 1
    m_Data: {fileID: 11400000, guid: 63851e1f4b3fe45298320e418f427323, type: 2}
  - m_RefCount: 1
    m_Data: {fileID: 11400000, guid: 5abd9b130858a416aa332d633489b915, type: 2}
  - m_RefCount: 1
    m_Data: {fileID: 11400000, guid: 987ea56df97ae484bb80774e6e4700fe, type: 2}
  - m_RefCount: 1
    m_Data: {fileID: 11400000, guid: 7b18115b56e744ef2b8803eb7b77745b, type: 2}
  - m_RefCount: 1
    m_Data: {fileID: 11400000, guid: e3f7ac8780eb140a0a06501378a83364, type: 2}
  - m_RefCount: 1
    m_Data: {fileID: 11400000, guid: 30d67b15e58a54263bde1c73fbb7e27a, type: 2}
  - m_RefCount: 1
    m_Data: {fileID: 11400000, guid: aa443fb8f96fc4e5493ce81ae7e4bca5, type: 2}
  - m_RefCount: 1
    m_Data: {fileID: 11400000, guid: f938725fd80f24235b11838a9704a9f4, type: 2}
  - m_RefCount: 1
    m_Data: {fileID: 11400000, guid: a3c0f8036396446729f9455e204c903a, type: 2}
  - m_RefCount: 1
    m_Data: {fileID: 11400000, guid: 800a8cd5ebac7498ba0a1300bc2111ff, type: 2}
  - m_RefCount: 1
    m_Data: {fileID: 11400000, guid: 93593bb62bab14567803b3e92741cbfa, type: 2}
  - m_RefCount: 1
    m_Data: {fileID: 11400000, guid: 4ce065324633042ddabf380f9659c39a, type: 2}
  - m_RefCount: 1
    m_Data: {fileID: 11400000, guid: 7fb1077afeab1470fa632a3b0c86bd72, type: 2}
  - m_RefCount: 1
    m_Data: {fileID: 11400000, guid: 683bfdda5f3e3419bbb2d3d1d852b12f, type: 2}
  - m_RefCount: 1
    m_Data: {fileID: 11400000, guid: 24f73a2edd497422f91c5eebd7ad9f7a, type: 2}
  - m_RefCount: 1
    m_Data: {fileID: 11400000, guid: ae88675c95bc448b69b2c0cb5da9a7f7, type: 2}
  - m_RefCount: 1
    m_Data: {fileID: 11400000, guid: 2b2ea23f8341949ee9eeda093d2cedcd, type: 2}
  - m_RefCount: 1
    m_Data: {fileID: 11400000, guid: fd787f98d855f4ce7b2c0402d9fdd700, type: 2}
  - m_RefCount: 1
    m_Data: {fileID: 11400000, guid: 06800d1f618c34a3e8119bbaa86de69c, type: 2}
  - m_RefCount: 1
    m_Data: {fileID: 11400000, guid: 3244915fd10c649cb83d669e7749d046, type: 2}
  - m_RefCount: 1
    m_Data: {fileID: 11400000, guid: 3c08ef296625040afaaabdc1589a082e, type: 2}
  - m_RefCount: 1
    m_Data: {fileID: 11400000, guid: c390e31256e744562a7110e6d9462f6f, type: 2}
  - m_RefCount: 1
    m_Data: {fileID: 11400000, guid: 454f64faa938248dea6a0e5d9c069311, type: 2}
  - m_RefCount: 1
    m_Data: {fileID: 11400000, guid: b62563c377547427393cca5872831e3a, type: 2}
  - m_RefCount: 1
    m_Data: {fileID: 11400000, guid: 0dfb3fe12e0754e43878f817e730eaed, type: 2}
  - m_RefCount: 1
    m_Data: {fileID: 11400000, guid: 853aa058aabb24afc912da411da53b55, type: 2}
  - m_RefCount: 1
    m_Data: {fileID: 11400000, guid: cd54bc2ef3e6e419bbec8f1830f9e731, type: 2}
  - m_RefCount: 1
    m_Data: {fileID: 11400000, guid: 76492d1e1b1d84cbdb76f26ba99a1977, type: 2}
  - m_RefCount: 1
    m_Data: {fileID: 11400000, guid: b5313356a89fd46399da51f735b0f2c6, type: 2}
  - m_RefCount: 1
    m_Data: {fileID: 11400000, guid: be1409fbeaedf40e8811dc7c1692324b, type: 2}
  - m_RefCount: 1
    m_Data: {fileID: 11400000, guid: 26bba9827634a4188be20cd4ca9c720e, type: 2}
  - m_RefCount: 1
    m_Data: {fileID: 11400000, guid: 20c4aa7dd7bd846b194c934c907fdf60, type: 2}
  - m_RefCount: 1
    m_Data: {fileID: 11400000, guid: 120bc436a26944880806f3c2210295f2, type: 2}
  - m_RefCount: 1
    m_Data: {fileID: 11400000, guid: 57b6bc58cab0c44479dd1ae6f02dab2a, type: 2}
  - m_RefCount: 1
    m_Data: {fileID: 11400000, guid: 0a319033f916d463e8b4d1b6a2e85f80, type: 2}
  - m_RefCount: 1
    m_Data: {fileID: 11400000, guid: f4ddc07c194e6429b9021d5e766b35ba, type: 2}
  - m_RefCount: 1
    m_Data: {fileID: 11400000, guid: 3f55f539c3f074086babe97778f2c699, type: 2}
  - m_RefCount: 1
    m_Data: {fileID: 11400000, guid: 8da57c9a188e84862a6a0eac1648851b, type: 2}
  - m_RefCount: 1
    m_Data: {fileID: 11400000, guid: 4923ca5e9a2654be7be2f463fd151816, type: 2}
  - m_RefCount: 1
    m_Data: {fileID: 11400000, guid: 2eb24dd4e04bb43a9a31a78f62a06e51, type: 2}
  - m_RefCount: 1
    m_Data: {fileID: 11400000, guid: e092f6b351d6c4a3b96e32c1b943a943, type: 2}
  - m_RefCount: 1
    m_Data: {fileID: 11400000, guid: 76396c3abd95e4e038b1177ce67669f3, type: 2}
  - m_RefCount: 1
    m_Data: {fileID: 11400000, guid: 98637a2f8236b4c38b80da2cd30a022f, type: 2}
  - m_RefCount: 1
    m_Data: {fileID: 11400000, guid: 283623a046c474be0ace9a04798609e8, type: 2}
  - m_RefCount: 1
    m_Data: {fileID: 11400000, guid: 07922e0234805476193bc6d07f0ebfff, type: 2}
  - m_RefCount: 1
    m_Data: {fileID: 11400000, guid: 88015e87f17a04fa9ba1053941bd14c7, type: 2}
  - m_RefCount: 1
    m_Data: {fileID: 11400000, guid: 1c8472150eb3d4920907c08c7af2a630, type: 2}
  - m_RefCount: 1
    m_Data: {fileID: 11400000, guid: d6e40317f61e143e9ae17c0825c7443b, type: 2}
  - m_RefCount: 1
    m_Data: {fileID: 11400000, guid: 1033836dbcac845f6b0b284505ed0eb3, type: 2}
  - m_RefCount: 1
    m_Data: {fileID: 11400000, guid: 43452f40ea1d34471a57dd7918fc2f3e, type: 2}
  - m_RefCount: 1
    m_Data: {fileID: 11400000, guid: 5b644dd4853e84c2f9a3cc23d6287cca, type: 2}
  - m_RefCount: 1
    m_Data: {fileID: 11400000, guid: 1ba30b8b3dee04f3cbfc3767c47d0231, type: 2}
  - m_RefCount: 1
    m_Data: {fileID: 11400000, guid: 53e9a7ac3950a427e904888f89be5e98, type: 2}
  - m_RefCount: 1
    m_Data: {fileID: 11400000, guid: fa39d7684d5264799b02a654c6f453f0, type: 2}
  - m_RefCount: 1
    m_Data: {fileID: 11400000, guid: 2559193fd2b684166b9402b71387611f, type: 2}
  - m_RefCount: 1
    m_Data: {fileID: 11400000, guid: 1115f51e34b5b4d49bfc61c47be8c82c, type: 2}
  - m_RefCount: 1
    m_Data: {fileID: 11400000, guid: e096034debfeb4c22a91ca2a32c81449, type: 2}
  - m_RefCount: 1
    m_Data: {fileID: 11400000, guid: 6c9ebcd1147104c76986811255ca44f0, type: 2}
  - m_RefCount: 1
    m_Data: {fileID: 11400000, guid: f4b229158de954b878877f2fc2cb2719, type: 2}
  - m_RefCount: 1
    m_Data: {fileID: 11400000, guid: ed526a83c517448dc9e6488201361e48, type: 2}
  - m_RefCount: 1
    m_Data: {fileID: 11400000, guid: 105e8beeae5de415783af7da11e7fe91, type: 2}
  - m_RefCount: 1
    m_Data: {fileID: 11400000, guid: 650d9ea4ecab444d1931afb33c82842f, type: 2}
  - m_RefCount: 1
    m_Data: {fileID: 11400000, guid: 8514f16d4b52a4e96acd714716393deb, type: 2}
  - m_RefCount: 1
    m_Data: {fileID: 11400000, guid: c7d40ce19d60a4a40a04bcaa2c6a0366, type: 2}
  - m_RefCount: 1
    m_Data: {fileID: 11400000, guid: bc85bcc7e592c42f8bd9a38cef71aff9, type: 2}
  - m_RefCount: 1
    m_Data: {fileID: 11400000, guid: 6e993e7bf2526437e8701ce3f50ecca8, type: 2}
  - m_RefCount: 1
    m_Data: {fileID: 11400000, guid: 2ef2045b401644493825022b4efae75c, type: 2}
  - m_RefCount: 1
    m_Data: {fileID: 11400000, guid: a81b8a9663898438296245c4f398b55a, type: 2}
  - m_RefCount: 1
    m_Data: {fileID: 11400000, guid: e90a8225092474c7baae359132c6e10a, type: 2}
  - m_RefCount: 1
    m_Data: {fileID: 11400000, guid: f2958a51fd465460ea650e3248ce675f, type: 2}
  - m_RefCount: 1
    m_Data: {fileID: 11400000, guid: c323717f671a749678693ee16b0d0a04, type: 2}
  - m_RefCount: 1
    m_Data: {fileID: 11400000, guid: 1b00ad7a250e34df580b9ea1a7fea18c, type: 2}
  - m_RefCount: 1
    m_Data: {fileID: 11400000, guid: 86bc06298eb5e408f9ec4fb56f50e196, type: 2}
  - m_RefCount: 1
    m_Data: {fileID: 11400000, guid: c7e3836fde9b24c24a34def4fdd902c3, type: 2}
  - m_RefCount: 1
    m_Data: {fileID: 11400000, guid: 57bf50042576c4b829ab0218fca33a73, type: 2}
  - m_RefCount: 1
    m_Data: {fileID: 11400000, guid: 0d9916b3f775847a7879ecb568d19483, type: 2}
  - m_RefCount: 1
    m_Data: {fileID: 11400000, guid: 0e8864b42cb5c4ce2b04053787547e07, type: 2}
  - m_RefCount: 1
    m_Data: {fileID: 11400000, guid: eab7e4bbfb41f4d299b66f6f24e0bad5, type: 2}
  - m_RefCount: 1
    m_Data: {fileID: 11400000, guid: 4c7ade5981dda49e6a46aabc58d4d502, type: 2}
  - m_RefCount: 1
    m_Data: {fileID: 11400000, guid: f53306b2487d5490a99426590d0dc006, type: 2}
  - m_RefCount: 1
    m_Data: {fileID: 11400000, guid: e5b8534ce7f834a2a8d1812506f500be, type: 2}
  - m_RefCount: 1
    m_Data: {fileID: 11400000, guid: 2eb7f334d06be48f8a1287e0cd117aa5, type: 2}
  - m_RefCount: 1
    m_Data: {fileID: 11400000, guid: 55d06024b8ada4f79bd14c7261f9e6b0, type: 2}
  - m_RefCount: 1
    m_Data: {fileID: 11400000, guid: eb8d7518b00424371a6b69ede54e6bc8, type: 2}
  - m_RefCount: 1
    m_Data: {fileID: 11400000, guid: a11ef4bc2ebe04e9c8d624ec5e1aa5a0, type: 2}
  - m_RefCount: 1
    m_Data: {fileID: 11400000, guid: b0e83605e7fb64efea352eaf0d0655fc, type: 2}
  - m_RefCount: 1
    m_Data: {fileID: 11400000, guid: 05c30810bd5a847139030f8991f52dcc, type: 2}
  - m_RefCount: 1
    m_Data: {fileID: 11400000, guid: 1f4d0177829a94feeaa8d4634e8c45a5, type: 2}
  - m_RefCount: 1
    m_Data: {fileID: 11400000, guid: 776d4d44fa8e243f7ba3fb3461805993, type: 2}
  - m_RefCount: 1
    m_Data: {fileID: 11400000, guid: 7b2b2d2463fbc43d3a274929e1605514, type: 2}
  - m_RefCount: 1
    m_Data: {fileID: 11400000, guid: ad2d5a13b51a8409b943e717956f36fc, type: 2}
  - m_RefCount: 1
    m_Data: {fileID: 11400000, guid: a55bb645e80064801a7e2a5ff24caaa3, type: 2}
  - m_RefCount: 1
    m_Data: {fileID: 11400000, guid: 4a0c49abfb9314c3fa7281282977210d, type: 2}
  - m_RefCount: 1
    m_Data: {fileID: 11400000, guid: 818cb4dab8ed94da4ac5dc18bbab883f, type: 2}
  - m_RefCount: 1
    m_Data: {fileID: 11400000, guid: 9b0c1945275414dc2be9fc6aee773ec1, type: 2}
  - m_RefCount: 1
    m_Data: {fileID: 11400000, guid: f899ba7166e8543d4b4636677cf3fe21, type: 2}
  - m_RefCount: 1
    m_Data: {fileID: 11400000, guid: 32ab218252249489383d2deb721b297a, type: 2}
  - m_RefCount: 1
    m_Data: {fileID: 11400000, guid: 4d7663f39816e408d9df9e0734227859, type: 2}
  - m_RefCount: 1
    m_Data: {fileID: 11400000, guid: 6b62b79b9e7494f16a3071e7795f6137, type: 2}
  - m_RefCount: 1
    m_Data: {fileID: 11400000, guid: 625d6a3c01b9b499080677950d285b5f, type: 2}
  - m_RefCount: 1
    m_Data: {fileID: 11400000, guid: 8e1f0d737a6814ed7adba5b33bdd5f33, type: 2}
  - m_RefCount: 1
    m_Data: {fileID: 11400000, guid: d1663ec0386f5425d94b8e6d4cd0001d, type: 2}
  - m_RefCount: 1
    m_Data: {fileID: 11400000, guid: 62586b6d1820d49fa830387a76fb92ae, type: 2}
  - m_RefCount: 1
    m_Data: {fileID: 11400000, guid: 1bf3f293906944611bd6616e674fa161, type: 2}
  - m_RefCount: 1
    m_Data: {fileID: 11400000, guid: 2e3c05c7b0b384bef83799327b5e2b0e, type: 2}
  - m_RefCount: 1
    m_Data: {fileID: 11400000, guid: 94e9671c524db46d4931296e8ea9d8a6, type: 2}
  m_TileSpriteArray:
  - m_RefCount: 1
    m_Data: {fileID: 21300000, guid: 2eeb0d4e8888f48459040781a511455e, type: 3}
  - m_RefCount: 1
    m_Data: {fileID: 21300002, guid: 2eeb0d4e8888f48459040781a511455e, type: 3}
  - m_RefCount: 1
    m_Data: {fileID: 21300004, guid: 2eeb0d4e8888f48459040781a511455e, type: 3}
  - m_RefCount: 1
    m_Data: {fileID: 21300006, guid: 2eeb0d4e8888f48459040781a511455e, type: 3}
  - m_RefCount: 1
    m_Data: {fileID: 21300008, guid: 2eeb0d4e8888f48459040781a511455e, type: 3}
  - m_RefCount: 1
    m_Data: {fileID: 21300010, guid: 2eeb0d4e8888f48459040781a511455e, type: 3}
  - m_RefCount: 1
    m_Data: {fileID: 21300012, guid: 2eeb0d4e8888f48459040781a511455e, type: 3}
  - m_RefCount: 1
    m_Data: {fileID: 21300014, guid: 2eeb0d4e8888f48459040781a511455e, type: 3}
  - m_RefCount: 1
    m_Data: {fileID: 21300016, guid: 2eeb0d4e8888f48459040781a511455e, type: 3}
  - m_RefCount: 1
    m_Data: {fileID: 21300018, guid: 2eeb0d4e8888f48459040781a511455e, type: 3}
  - m_RefCount: 1
    m_Data: {fileID: 21300020, guid: 2eeb0d4e8888f48459040781a511455e, type: 3}
  - m_RefCount: 1
    m_Data: {fileID: 21300022, guid: 2eeb0d4e8888f48459040781a511455e, type: 3}
  - m_RefCount: 1
    m_Data: {fileID: 21300024, guid: 2eeb0d4e8888f48459040781a511455e, type: 3}
  - m_RefCount: 1
    m_Data: {fileID: 21300026, guid: 2eeb0d4e8888f48459040781a511455e, type: 3}
  - m_RefCount: 1
    m_Data: {fileID: 21300028, guid: 2eeb0d4e8888f48459040781a511455e, type: 3}
  - m_RefCount: 1
    m_Data: {fileID: 21300030, guid: 2eeb0d4e8888f48459040781a511455e, type: 3}
  - m_RefCount: 1
    m_Data: {fileID: 21300032, guid: 2eeb0d4e8888f48459040781a511455e, type: 3}
  - m_RefCount: 1
    m_Data: {fileID: 21300034, guid: 2eeb0d4e8888f48459040781a511455e, type: 3}
  - m_RefCount: 1
    m_Data: {fileID: 21300036, guid: 2eeb0d4e8888f48459040781a511455e, type: 3}
  - m_RefCount: 1
    m_Data: {fileID: 21300038, guid: 2eeb0d4e8888f48459040781a511455e, type: 3}
  - m_RefCount: 1
    m_Data: {fileID: 21300040, guid: 2eeb0d4e8888f48459040781a511455e, type: 3}
  - m_RefCount: 1
    m_Data: {fileID: 21300042, guid: 2eeb0d4e8888f48459040781a511455e, type: 3}
  - m_RefCount: 1
    m_Data: {fileID: 21300044, guid: 2eeb0d4e8888f48459040781a511455e, type: 3}
  - m_RefCount: 1
    m_Data: {fileID: 21300046, guid: 2eeb0d4e8888f48459040781a511455e, type: 3}
  - m_RefCount: 1
    m_Data: {fileID: 21300048, guid: 2eeb0d4e8888f48459040781a511455e, type: 3}
  - m_RefCount: 1
    m_Data: {fileID: 21300050, guid: 2eeb0d4e8888f48459040781a511455e, type: 3}
  - m_RefCount: 1
    m_Data: {fileID: 21300052, guid: 2eeb0d4e8888f48459040781a511455e, type: 3}
  - m_RefCount: 1
    m_Data: {fileID: 21300054, guid: 2eeb0d4e8888f48459040781a511455e, type: 3}
  - m_RefCount: 1
    m_Data: {fileID: 21300056, guid: 2eeb0d4e8888f48459040781a511455e, type: 3}
  - m_RefCount: 1
    m_Data: {fileID: 21300058, guid: 2eeb0d4e8888f48459040781a511455e, type: 3}
  - m_RefCount: 1
    m_Data: {fileID: 21300060, guid: 2eeb0d4e8888f48459040781a511455e, type: 3}
  - m_RefCount: 1
    m_Data: {fileID: 21300062, guid: 2eeb0d4e8888f48459040781a511455e, type: 3}
  - m_RefCount: 1
    m_Data: {fileID: 21300064, guid: 2eeb0d4e8888f48459040781a511455e, type: 3}
  - m_RefCount: 1
    m_Data: {fileID: 21300066, guid: 2eeb0d4e8888f48459040781a511455e, type: 3}
  - m_RefCount: 1
    m_Data: {fileID: 21300068, guid: 2eeb0d4e8888f48459040781a511455e, type: 3}
  - m_RefCount: 1
    m_Data: {fileID: 21300070, guid: 2eeb0d4e8888f48459040781a511455e, type: 3}
  - m_RefCount: 1
    m_Data: {fileID: 21300072, guid: 2eeb0d4e8888f48459040781a511455e, type: 3}
  - m_RefCount: 1
    m_Data: {fileID: 21300074, guid: 2eeb0d4e8888f48459040781a511455e, type: 3}
  - m_RefCount: 1
    m_Data: {fileID: 21300076, guid: 2eeb0d4e8888f48459040781a511455e, type: 3}
  - m_RefCount: 1
    m_Data: {fileID: 21300078, guid: 2eeb0d4e8888f48459040781a511455e, type: 3}
  - m_RefCount: 1
    m_Data: {fileID: 21300080, guid: 2eeb0d4e8888f48459040781a511455e, type: 3}
  - m_RefCount: 1
    m_Data: {fileID: 21300082, guid: 2eeb0d4e8888f48459040781a511455e, type: 3}
  - m_RefCount: 1
    m_Data: {fileID: 21300084, guid: 2eeb0d4e8888f48459040781a511455e, type: 3}
  - m_RefCount: 1
    m_Data: {fileID: 21300086, guid: 2eeb0d4e8888f48459040781a511455e, type: 3}
  - m_RefCount: 1
    m_Data: {fileID: 21300088, guid: 2eeb0d4e8888f48459040781a511455e, type: 3}
  - m_RefCount: 1
    m_Data: {fileID: 21300090, guid: 2eeb0d4e8888f48459040781a511455e, type: 3}
  - m_RefCount: 1
    m_Data: {fileID: 21300092, guid: 2eeb0d4e8888f48459040781a511455e, type: 3}
  - m_RefCount: 1
    m_Data: {fileID: 21300094, guid: 2eeb0d4e8888f48459040781a511455e, type: 3}
  - m_RefCount: 1
    m_Data: {fileID: 21300096, guid: 2eeb0d4e8888f48459040781a511455e, type: 3}
  - m_RefCount: 1
    m_Data: {fileID: 21300098, guid: 2eeb0d4e8888f48459040781a511455e, type: 3}
  - m_RefCount: 1
    m_Data: {fileID: 21300100, guid: 2eeb0d4e8888f48459040781a511455e, type: 3}
  - m_RefCount: 1
    m_Data: {fileID: 21300102, guid: 2eeb0d4e8888f48459040781a511455e, type: 3}
  - m_RefCount: 1
    m_Data: {fileID: 21300104, guid: 2eeb0d4e8888f48459040781a511455e, type: 3}
  - m_RefCount: 1
    m_Data: {fileID: 21300106, guid: 2eeb0d4e8888f48459040781a511455e, type: 3}
  - m_RefCount: 1
    m_Data: {fileID: 21300108, guid: 2eeb0d4e8888f48459040781a511455e, type: 3}
  - m_RefCount: 1
    m_Data: {fileID: 21300110, guid: 2eeb0d4e8888f48459040781a511455e, type: 3}
  - m_RefCount: 1
    m_Data: {fileID: 21300112, guid: 2eeb0d4e8888f48459040781a511455e, type: 3}
  - m_RefCount: 1
    m_Data: {fileID: 21300114, guid: 2eeb0d4e8888f48459040781a511455e, type: 3}
  - m_RefCount: 1
    m_Data: {fileID: 21300116, guid: 2eeb0d4e8888f48459040781a511455e, type: 3}
  - m_RefCount: 1
    m_Data: {fileID: 21300118, guid: 2eeb0d4e8888f48459040781a511455e, type: 3}
  - m_RefCount: 1
    m_Data: {fileID: 21300120, guid: 2eeb0d4e8888f48459040781a511455e, type: 3}
  - m_RefCount: 1
    m_Data: {fileID: 21300122, guid: 2eeb0d4e8888f48459040781a511455e, type: 3}
  - m_RefCount: 1
    m_Data: {fileID: 21300124, guid: 2eeb0d4e8888f48459040781a511455e, type: 3}
  - m_RefCount: 1
    m_Data: {fileID: 21300126, guid: 2eeb0d4e8888f48459040781a511455e, type: 3}
  - m_RefCount: 1
    m_Data: {fileID: 21300128, guid: 2eeb0d4e8888f48459040781a511455e, type: 3}
  - m_RefCount: 1
    m_Data: {fileID: 21300130, guid: 2eeb0d4e8888f48459040781a511455e, type: 3}
  - m_RefCount: 1
    m_Data: {fileID: 21300132, guid: 2eeb0d4e8888f48459040781a511455e, type: 3}
  - m_RefCount: 1
    m_Data: {fileID: 21300134, guid: 2eeb0d4e8888f48459040781a511455e, type: 3}
  - m_RefCount: 1
    m_Data: {fileID: 21300136, guid: 2eeb0d4e8888f48459040781a511455e, type: 3}
  - m_RefCount: 1
    m_Data: {fileID: 21300138, guid: 2eeb0d4e8888f48459040781a511455e, type: 3}
  - m_RefCount: 1
    m_Data: {fileID: 21300140, guid: 2eeb0d4e8888f48459040781a511455e, type: 3}
  - m_RefCount: 1
    m_Data: {fileID: 21300142, guid: 2eeb0d4e8888f48459040781a511455e, type: 3}
  - m_RefCount: 1
    m_Data: {fileID: 21300144, guid: 2eeb0d4e8888f48459040781a511455e, type: 3}
  - m_RefCount: 1
    m_Data: {fileID: 21300146, guid: 2eeb0d4e8888f48459040781a511455e, type: 3}
  - m_RefCount: 1
    m_Data: {fileID: 21300148, guid: 2eeb0d4e8888f48459040781a511455e, type: 3}
  - m_RefCount: 1
    m_Data: {fileID: 21300150, guid: 2eeb0d4e8888f48459040781a511455e, type: 3}
  - m_RefCount: 1
    m_Data: {fileID: 21300152, guid: 2eeb0d4e8888f48459040781a511455e, type: 3}
  - m_RefCount: 1
    m_Data: {fileID: 21300154, guid: 2eeb0d4e8888f48459040781a511455e, type: 3}
  - m_RefCount: 1
    m_Data: {fileID: 21300156, guid: 2eeb0d4e8888f48459040781a511455e, type: 3}
  - m_RefCount: 1
    m_Data: {fileID: 21300158, guid: 2eeb0d4e8888f48459040781a511455e, type: 3}
  - m_RefCount: 1
    m_Data: {fileID: 21300160, guid: 2eeb0d4e8888f48459040781a511455e, type: 3}
  - m_RefCount: 1
    m_Data: {fileID: 21300162, guid: 2eeb0d4e8888f48459040781a511455e, type: 3}
  - m_RefCount: 1
    m_Data: {fileID: 21300164, guid: 2eeb0d4e8888f48459040781a511455e, type: 3}
  - m_RefCount: 1
    m_Data: {fileID: 21300166, guid: 2eeb0d4e8888f48459040781a511455e, type: 3}
  - m_RefCount: 1
    m_Data: {fileID: 21300168, guid: 2eeb0d4e8888f48459040781a511455e, type: 3}
  - m_RefCount: 1
    m_Data: {fileID: 21300170, guid: 2eeb0d4e8888f48459040781a511455e, type: 3}
  - m_RefCount: 1
    m_Data: {fileID: 21300172, guid: 2eeb0d4e8888f48459040781a511455e, type: 3}
  - m_RefCount: 1
    m_Data: {fileID: 21300174, guid: 2eeb0d4e8888f48459040781a511455e, type: 3}
  - m_RefCount: 1
    m_Data: {fileID: 21300176, guid: 2eeb0d4e8888f48459040781a511455e, type: 3}
  - m_RefCount: 1
    m_Data: {fileID: 21300178, guid: 2eeb0d4e8888f48459040781a511455e, type: 3}
  - m_RefCount: 1
    m_Data: {fileID: 21300180, guid: 2eeb0d4e8888f48459040781a511455e, type: 3}
  - m_RefCount: 1
    m_Data: {fileID: 21300182, guid: 2eeb0d4e8888f48459040781a511455e, type: 3}
  - m_RefCount: 1
    m_Data: {fileID: 21300184, guid: 2eeb0d4e8888f48459040781a511455e, type: 3}
  - m_RefCount: 1
    m_Data: {fileID: 21300186, guid: 2eeb0d4e8888f48459040781a511455e, type: 3}
  - m_RefCount: 1
    m_Data: {fileID: 21300188, guid: 2eeb0d4e8888f48459040781a511455e, type: 3}
  - m_RefCount: 1
    m_Data: {fileID: 21300190, guid: 2eeb0d4e8888f48459040781a511455e, type: 3}
  - m_RefCount: 1
    m_Data: {fileID: 21300192, guid: 2eeb0d4e8888f48459040781a511455e, type: 3}
  - m_RefCount: 1
    m_Data: {fileID: 21300194, guid: 2eeb0d4e8888f48459040781a511455e, type: 3}
  - m_RefCount: 1
    m_Data: {fileID: 21300196, guid: 2eeb0d4e8888f48459040781a511455e, type: 3}
  - m_RefCount: 1
    m_Data: {fileID: 21300198, guid: 2eeb0d4e8888f48459040781a511455e, type: 3}
  - m_RefCount: 1
    m_Data: {fileID: 21300200, guid: 2eeb0d4e8888f48459040781a511455e, type: 3}
  - m_RefCount: 1
    m_Data: {fileID: 21300202, guid: 2eeb0d4e8888f48459040781a511455e, type: 3}
  - m_RefCount: 1
    m_Data: {fileID: 21300204, guid: 2eeb0d4e8888f48459040781a511455e, type: 3}
  - m_RefCount: 1
    m_Data: {fileID: 21300206, guid: 2eeb0d4e8888f48459040781a511455e, type: 3}
  - m_RefCount: 1
    m_Data: {fileID: 21300208, guid: 2eeb0d4e8888f48459040781a511455e, type: 3}
  - m_RefCount: 1
    m_Data: {fileID: 21300210, guid: 2eeb0d4e8888f48459040781a511455e, type: 3}
  - m_RefCount: 1
    m_Data: {fileID: 21300212, guid: 2eeb0d4e8888f48459040781a511455e, type: 3}
  - m_RefCount: 1
    m_Data: {fileID: 21300214, guid: 2eeb0d4e8888f48459040781a511455e, type: 3}
  - m_RefCount: 1
    m_Data: {fileID: 21300216, guid: 2eeb0d4e8888f48459040781a511455e, type: 3}
  m_TileMatrixArray:
  - m_RefCount: 109
    m_Data:
      e00: 1
      e01: 0
      e02: 0
      e03: 0
      e10: 0
      e11: 1
      e12: 0
      e13: 0
      e20: 0
      e21: 0
      e22: 1
      e23: 0
      e30: 0
      e31: 0
      e32: 0
      e33: 1
  m_TileColorArray:
  - m_RefCount: 109
    m_Data: {r: 1, g: 1, b: 1, a: 1}
  m_TileObjectToInstantiateArray: []
  m_AnimationFrameRate: 1
  m_Color: {r: 1, g: 1, b: 1, a: 1}
  m_Origin: {x: -1, y: -11, z: 0}
  m_Size: {x: 20, y: 12, z: 1}
  m_TileAnchor: {x: 0.5, y: 0.5, z: 0}
  m_TileOrientation: 0
  m_TileOrientationMatrix:
    e00: 1
    e01: 0
    e02: 0
    e03: 0
    e10: 0
    e11: 1
    e12: 0
    e13: 0
    e20: 0
    e21: 0
    e22: 1
    e23: 0
    e30: 0
    e31: 0
    e32: 0
    e33: 1
--- !u!483693784 &1971155661453555544
TilemapRenderer:
  m_ObjectHideFlags: 0
  m_CorrespondingSourceObject: {fileID: 0}
  m_PrefabInstance: {fileID: 0}
  m_PrefabAsset: {fileID: 0}
  m_GameObject: {fileID: 7496094492503707118}
  m_Enabled: 1
  m_CastShadows: 0
  m_ReceiveShadows: 0
  m_DynamicOccludee: 1
  m_MotionVectors: 1
  m_LightProbeUsage: 0
  m_ReflectionProbeUsage: 0
  m_RayTracingMode: 0
  m_RayTraceProcedural: 0
  m_RenderingLayerMask: 1
  m_RendererPriority: 0
  m_Materials:
  - {fileID: 10754, guid: 0000000000000000f000000000000000, type: 0}
  m_StaticBatchInfo:
    firstSubMesh: 0
    subMeshCount: 0
  m_StaticBatchRoot: {fileID: 0}
  m_ProbeAnchor: {fileID: 0}
  m_LightProbeVolumeOverride: {fileID: 0}
  m_ScaleInLightmap: 1
  m_ReceiveGI: 1
  m_PreserveUVs: 0
  m_IgnoreNormalsForChartDetection: 0
  m_ImportantGI: 0
  m_StitchLightmapSeams: 1
  m_SelectedEditorRenderState: 0
  m_MinimumChartSize: 4
  m_AutoUVMaxDistance: 0.5
  m_AutoUVMaxAngle: 89
  m_LightmapParameters: {fileID: 0}
  m_SortingLayerID: 0
  m_SortingLayer: 0
  m_SortingOrder: 0
  m_ChunkSize: {x: 32, y: 32, z: 32}
  m_ChunkCullingBounds: {x: 0, y: 0, z: 0}
  m_MaxChunkCount: 16
  m_MaxFrameAge: 16
  m_SortOrder: 0
  m_Mode: 0
  m_DetectChunkCullingBounds: 0
  m_MaskInteraction: 0
--- !u!1 &8626301154082978678
GameObject:
  m_ObjectHideFlags: 0
  m_CorrespondingSourceObject: {fileID: 0}
  m_PrefabInstance: {fileID: 0}
  m_PrefabAsset: {fileID: 0}
  serializedVersion: 6
  m_Component:
  - component: {fileID: 5965446612524258084}
  - component: {fileID: 4313889905993366469}
  m_Layer: 31
  m_Name: SunnyLandTilePalette
  m_TagString: Untagged
  m_Icon: {fileID: 0}
  m_NavMeshLayer: 0
  m_StaticEditorFlags: 0
  m_IsActive: 1
--- !u!4 &5965446612524258084
Transform:
  m_ObjectHideFlags: 0
  m_CorrespondingSourceObject: {fileID: 0}
  m_PrefabInstance: {fileID: 0}
  m_PrefabAsset: {fileID: 0}
  m_GameObject: {fileID: 8626301154082978678}
  m_LocalRotation: {x: 0, y: 0, z: 0, w: 1}
  m_LocalPosition: {x: 0, y: 0, z: 0}
  m_LocalScale: {x: 1, y: 1, z: 1}
  m_Children:
  - {fileID: 6865734879591160769}
  m_Father: {fileID: 0}
  m_RootOrder: 0
  m_LocalEulerAnglesHint: {x: 0, y: 0, z: 0}
--- !u!156049354 &4313889905993366469
Grid:
  m_ObjectHideFlags: 0
  m_CorrespondingSourceObject: {fileID: 0}
  m_PrefabInstance: {fileID: 0}
  m_PrefabAsset: {fileID: 0}
  m_GameObject: {fileID: 8626301154082978678}
  m_Enabled: 1
  m_CellSize: {x: 1, y: 1, z: 0}
  m_CellGap: {x: 0, y: 0, z: 0}
  m_CellLayout: 0
  m_CellSwizzle: 0
--- !u!114 &6227420776711964280
MonoBehaviour:
  m_ObjectHideFlags: 0
  m_CorrespondingSourceObject: {fileID: 0}
  m_PrefabInstance: {fileID: 0}
  m_PrefabAsset: {fileID: 0}
  m_GameObject: {fileID: 0}
  m_Enabled: 1
  m_EditorHideFlags: 0
  m_Script: {fileID: 12395, guid: 0000000000000000e000000000000000, type: 0}
  m_Name: Palette Settings
  m_EditorClassIdentifier: 
  cellSizing: 0
