%YAML 1.1
%TAG !u! tag:unity3d.com,2011:
--- !u!74 &7400000
AnimationClip:
  m_ObjectHideFlags: 0
  m_CorrespondingSourceObject: {fileID: 0}
  m_PrefabInstance: {fileID: 0}
  m_PrefabAsset: {fileID: 0}
  m_Name: Fly
  serializedVersion: 6
  m_Legacy: 0
  m_Compressed: 0
  m_UseHighQualityCurve: 1
  m_RotationCurves: []
  m_CompressedRotationCurves: []
  m_EulerCurves: []
  m_PositionCurves: []
  m_ScaleCurves: []
  m_FloatCurves: []
  m_PPtrCurves:
  - curve:
    - time: 0
      value: {fileID: 21300000, guid: b44ad350aab99416da042ed03d420869, type: 3}
    - time: 0.16666667
      value: {fileID: 21300000, guid: 48f7d4838cc984b75937d90760cd6762, type: 3}
    - time: 0.33333334
      value: {fileID: 21300000, guid: 9ea51be9f59364c69a4655d2b329cc78, type: 3}
    - time: 0.5
      value: {fileID: 21300000, guid: a56580789acf348ed9fab74803ac808a, type: 3}
    - time: 0.6666667
      value: {fileID: 21300000, guid: 28b10e96f632c42ac8e50d8bfa481408, type: 3}
    - time: 0.8333333
      value: {fileID: 21300000, guid: 32a52018efe8d4da0b321b889a993eee, type: 3}
    - time: 1
      value: {fileID: 21300000, guid: 8e77a04c63c29476dac773c8e4af4c46, type: 3}
    - time: 1.1666666
      value: {fileID: 21300000, guid: e8a306ff172224d878af749a5e63deee, type: 3}
    - time: 1.3333334
      value: {fileID: 21300000, guid: 8e77a04c63c29476dac773c8e4af4c46, type: 3}
    attribute: m_Sprite
    path: 
    classID: 212
    script: {fileID: 0}
  m_SampleRate: 60
  m_WrapMode: 0
  m_Bounds:
    m_Center: {x: 0, y: 0, z: 0}
    m_Extent: {x: 0, y: 0, z: 0}
  m_ClipBindingConstant:
    genericBindings:
    - serializedVersion: 2
      path: 0
      attribute: 0
      script: {fileID: 0}
      typeID: 212
      customType: 23
      isPPtrCurve: 1
    pptrCurveMapping:
    - {fileID: 21300000, guid: b44ad350aab99416da042ed03d420869, type: 3}
    - {fileID: 21300000, guid: 48f7d4838cc984b75937d90760cd6762, type: 3}
    - {fileID: 21300000, guid: 9ea51be9f59364c69a4655d2b329cc78, type: 3}
    - {fileID: 21300000, guid: a56580789acf348ed9fab74803ac808a, type: 3}
    - {fileID: 21300000, guid: 28b10e96f632c42ac8e50d8bfa481408, type: 3}
    - {fileID: 21300000, guid: 32a52018efe8d4da0b321b889a993eee, type: 3}
    - {fileID: 21300000, guid: 8e77a04c63c29476dac773c8e4af4c46, type: 3}
    - {fileID: 21300000, guid: e8a306ff172224d878af749a5e63deee, type: 3}
    - {fileID: 21300000, guid: 8e77a04c63c29476dac773c8e4af4c46, type: 3}
  m_AnimationClipSettings:
    serializedVersion: 2
    m_AdditiveReferencePoseClip: {fileID: 0}
    m_AdditiveReferencePoseTime: 0
    m_StartTime: 0
    m_StopTime: 1.35
    m_OrientationOffsetY: 0
    m_Level: 0
    m_CycleOffset: 0
    m_HasAdditiveReferencePose: 0
    m_LoopTime: 1
    m_LoopBlend: 0
    m_LoopBlendOrientation: 0
    m_LoopBlendPositionY: 0
    m_LoopBlendPositionXZ: 0
    m_KeepOriginalOrientation: 0
    m_KeepOriginalPositionY: 1
    m_KeepOriginalPositionXZ: 0
    m_HeightFromFeet: 0
    m_Mirror: 0
  m_EditorCurves: []
  m_EulerEditorCurves: []
  m_HasGenericRootTransform: 0
  m_HasMotionFloatCurves: 0
  m_Events: []
